25

2
9
7
-2
6
6
2
3
10

10
-1
5
6
9
1

7
6
10
9
2
-3
-2
-1
-2
6
4
-2
-1

10
7
-1
3
1
7
9
-3

9
2
2
3
-1
-1
-1
10
8
1

1
2
-1
-1
9
-1

5
8
7
4
5
10
-5
-3
-4

1
1
2
-2
-2
5
4
-2
-1
-1

9
2
5
1
-1
9
-4

10
8
7
6
7
6
4
6
4
9
-5
-8
-5
-2
-5

9
8
-2
4
1
3
-4
-1

1
10
9
9
-3
3
8
1
1
4
-3
-5
-6
-3
-4
-1
-1
-1

2
10
7
6
9
-3
-2
-2
-1
-1
7

10
5
5

10
10
9
3
8
5
2
-4
-3
-1
-4
-3
-1
-1

10
4
4
-3
1

3
6
7
2
5
-5
9
-2
-4
-3
-1
-1

10
5
-1
-1
9
3
1
-3
-2

9
8
-1
9
1
3
8
-4
-4
-1

2
6
8
10
9
-1
-1
6
8
6
3
-5
-2
-5
-2
-1
-1
-1

6
10
5
9
-4
-2
-2
-1
7
5
7

2
10
10
7
8
-5
-1
-2
-2
-1

4
-1
3
1
9
5
7
-2
-3

1
3
9
-1
-1
9
4
-2

10
4
5
1
-2
-2
2
-3
-2
-1
