26

7
4
8
5
1
4
2
3
-3
-3
-7
-1
-2
-3
-3

10
9
9
2
10
4
4
8
3
2
5
-10
-2
-1
-4
-2
-1
-3
-3
-1
-6

9
7
6
1
2
4
4
9
5
5
-3
-8
-3
-4
-2
-4
-7
-6
-3

1
8
-1

2
10
3
-2
-2

6
1
10
10
7
2
1
-5
-5
-1
-4
-1
-5

8
1
1
5
3
3
4
7
10
-7
-6
-1
-3
-5
-2
-1
-1

8
3
3
2
6
7
6
8
6
-4
-7
-4
-7
-7
-5
-4
-3

2
10
6
-2
-2

5
8
6
8
2
6
-1
-1
-4
-1
-3

9
2
7
8
5
1
9
10
4
1
-6
-5
-1
-4
-6
-2
-2
-3
-6

4
1
7
6
10
-2
-4
-3
-3

5
9
5
5
7
9
-3
-1
-4
-3
-3

8
9
4
1
3
3
5
1
1
-7
-6
-3
-3
-7
-8
-8
-8

3
10
7
9
-2
-1
-2

10
6
6
1
6
1
3
5
4
4
7
-4
-4
-1
-7
-4
-1
-6
-3
-7
-7

9
8
8
10
3
7
1
4
2
10
-9
-9
-4
-9
-6
-4
-2
-4
-4

9
1
7
9
6
6
10
9
6
9
-1
-7
-6
-5
-2
-7
-5
-2
-4

6
6
4
7
10
10
10
-2
-3
-5
-4
-6
-3

1
1
-1

7
2
10
1
4
2
9
9
-3
-6
-2
-3
-4
-3
-6

10
2
7
2
8
8
6
8
2
3
4
-2
-1
-3
-5
-10
-1
-1
-3
-10
-9

6
7
5
6
4
3
2
-4
-4
-5
-1
-6
-1

7
3
4
5
8
4
4
5
-5
-5
-3
-6
-1
-2
-4

8
3
9
7
9
5
2
9
8
-1
-5
-2
-5
-3
-6
-8
-3

4
5
3
6
5
-3
-4
-3
-2
