24

5
2
10
1
7
4
5
-5
-2
-1
-2
-1
5
10
8
10
1
10

5
1
9
1
5
4
3
-5
-2
-1
1
1

4
9
9
3
2
4
-3
-3
-2
-1
4
5
6
5
3

5
9
3
1
4
7
4
-3
-3
-2
-1
4
10
9
1
6

1
4
1
-1
1
6

2
6
3
2
-2
-1
3
2
4
1

4
7
2
2
8
3
-2
-1
-2
4
4
6
8
2

4
2
3
3
1
1
-2
5
10
3
10
9
7

4
3
1
7
8
1
-2
4
2
4
5
6

2
1
4
2
-2
-1
5
2
7
10
4
7

2
6
4
2
-2
-1
3
1
2
10

1
1
1
-1
2
5
10

2
10
8
2
-1
-1
3
5
2
3

1
9
1
-1
3
8
1
9

1
9
1
-1
3
8
6
6

3
4
5
2
3
-3
-1
-1
4
10
10
2
7

3
7
10
6
1
-2
3
7
9
7

3
3
6
3
1
-2
5
4
3
4
1
2

2
9
3
1
-2
4
9
4
8
2

3
3
4
1
2
-2
-2
5
3
3
1
3
4

2
7
8
2
-1
-1
3
10
6
2

1
5
1
-1
2
2
9

5
7
1
3
7
9
2
-2
-1
5
6
4
3
4
3

2
2
10
2
-1
-1
1
1
