-32 -8 -16 -24 880
-8 -56 8 -64 40 -48 720
-16 -24 -48 24 -56 -56 -24 -64 616
-32 -32 -40 -16 -48 784
-16 -8 -16 -56 -48 808
-48 -64 -8 -16 -24 792
-24 -48 -56 -16 -64 -64 -64 -24 568
-8 -32 -8 -40 16 -48 -56 728
-32 -16 928
-48 8 -32 -48 -40 -32 -32 -64 -24 592
-56 -16 -32 -56 -16 -64 -32 -64 592
-64 920
-32 -64 880
-8 -56 56 -32 56 -64 672
-40 -16 920
-24 960
-16 -24 32 -16 872
-64 920
-40 -8 928
-8 -32 936
64 -8 -40 -32 816
-32 -64 -48 -64 752
-64 -24 -56 -16 800
-64 -8 904
-48 -16 -56 848
-40 -8 -32 -16 864
-8 -64 -32 -56 -40 -48 -32 -56 -64 520
-64 -32 -40 832
-24 -32 -24 -24 -48 -40 -16 728
-48 -48 880
