20

5
7
3
6
4
-2

5
7
3
6
4
-2
5
6
-3
4
8
5
-4
6
7
-1

10
6
8
4
7
5
-2
9
7
5
-3
8
9
-4
6
5
3
-1

8
7
9
-3
-1

9
5
-2
-3
-1

10
4
6
-4
-2
-1

5
8
6
5
3
7
4
-3
-1
-2

6
7
3
6
4
5
-3
-2
-1

7
9
4
7
5
8
-2
-3
-1

8
6
4
8
7
5
-1
-2
-3

9
5
9
3
8
6
-2
-1
-3

10
8
7
6
10
5
-2
-3
-1
-4

5
6
4
-2
-1

6
8
5
-3
-1

12
5
6
8
4
-2
7
9
5
-3
8
6
-4
9
7
5
-1
10
8
6
4
-3

8
7
9
-3
-1

9
5
-2
-3
-1

10
4
6
-4
-2
-1

5
8
6
5
3
7
4
-3
-1
-2

6
7
3
6
4
5
-3
-2
-1
