-48 32 -48 -80 -24 -32 680
-8 -8 16 -16 -72 832
-8 -8 40 -16 -24 -80 768
-56 56 -64 -56 728
72 -32 -64 -32 -56 696
-72 16 -56 824
-48 8 -72 -72 -40 -32 -24 -40 -80 504
-48 -48 8 -56 -64 728
-80 -72 -40 -80 -72 -56 -16 520
-80 -48 -40 -72 720
-72 -8 -48 -80 -64 -8 664
-64 8 -16 -32 840
-8 -16 32 -72 -64 -56 696
56 -16 -32 -80 776
-32 16 -16 -48 -56 -72 704
-64 8 -56 840
-56 -40 -64 -56 -80 656
-40 24 -16 888
-40 -24 24 -48 -80 736
-48 -16 912
-32 64 -32 -56 -72 -80 608
24 -80 -32 -64 -80 672
112 -56 -8 -8 -72 -64 -56 -64 488
64 -56 856
