28

10
1
4
9
9
8
4
1
-7
-7

7
2
8
9
-3
-2
7
1
2
4
8

7
3
1
6
-2
-3
8
-3
-2

5
2
-1
4
1
6
6
10

2
3
1
10
4
-4
-3

8
9
1
-1
-2
10
3

9
4
5
2
7
3
1
2
8
-9
-7
-5
-6
-2
-1
-3

3
8
6
-1
-2
1
8
6
3
-1
-3
-3
-2
-1

3
5
5
3
-1
-3
-1
7
-1
-1

10
10
10
3
-4
10
9
2
4
5
-2
-5
-2
-3
-4
-2
-1

1
1
3
2
-3

9
9
1
-3
-1
-1

9
2
-2
-1
7
1
3
2
5

3
-1
6
4
5
7
7
-1

10
3
9
-2
7
6
9
9
-3
-3
-4
-3
-2
-1

1
8
7
6
1
10
2
-7
-2
-2
-4
-2

8
4
5
6
7
-1
-1
-1
-2
4
10
3
-4
-1
-1
-1

5
6
8
2
3
-2
6
8
8
10
-3
-3
-6
-1
-4

1
7
4
2
9

1
7
-1
-1
7
9
4
-1

2
8
1
1
7
-3
-4
-2
-2

7
3
9
-2
2
8
-1

7
7
3
1
-2

4
-1
7
4
8
5
-4

8
6
9
6
-2
-2
10
2
7
3
-4
-5
-4
-1
-2
-1

2
3
6
2
-3
-1

10
9
10
4

10
-1
6
10
3
2
4
