-80 -8 -32 -72 -72 -64 616
-56 -56 -8 8 -72 -16 -32 -64 616
-56 928
-40 -16 -8 -48 -48 -80 704
-16 -24 96 -32 792
-24 32 -72 -80 752
112 -40 -16 800
992
992
448 -32 496
-8 -8 24 -16 904
992
-56 -8 -24 -16 -40 808
48 -32 -40 -56 -56 720
992
-8 184 -8 768
992
40 -48 88 -24 -64 688
-8 -56 -32 -16 -72 768
56 -72 -32 808
-16 968
56 -24 -72 -64 744
-56 56 -24 -8 816
-56 -32 -64 816
992
16 -24 48 -16 856
-80 -72 -80 -32 696
-48 -80 -24 -16 -32 752
