992
-32 952
992
256 -32 688
-72 -56 -64 -16 -32 712
48 -40 40 -80 752
992
80 -48 848
-72 8 -56 832
-48 72 -8 840
64 -8 -24 80 -32 744
24 -80 -8 72 -24 744
64 -80 -56 768
-16 -72 888
80 -16 880
-32 952
-24 -40 912
-32 104 -16 64 -24 -40 -64 592
48 -32 72 -16 792
16 -24 -72 856
-64 -80 -32 -16 768
-56 -40 880
