992
-16 -24 -80 -72 768
992
48 -48 72 -40 -8 736
992
48 -40 -80 -64 728
-64 920
992
8 -80 48 -32 792
992
992
-56 -8 -40 -24 832
-8 -72 -40 -72 768
32 -64 -16 -64 -64 712
-16 968
-24 152 -64 728
992
-8 16 -64 48 -56 -24 -64 40 -80 -24 488
32 -48 80 -64 -16 -64 -56 576
248 -48 680
-72 24 -80 792
992
992
88 -80 808
-8 -40 72 -56 -40 -16 -24 680
-64 40 -32 -48 -64 -72 -80 536
992
